<svg xmlns="http://www.w3.org/2000/svg" width="160" height="138" viewBox="0 0 160 138">
  <g id="Data_Empty" data-name="Data Empty" transform="translate(-15.999 -142)">
    <rect id="Rectangle_5472" data-name="Rectangle 5472" width="160" height="138" rx="8" transform="translate(15.999 142)" fill="#ebebeb"/>
    <g id="Group_11010" data-name="Group 11010" transform="translate(33.453 159.432)">
      <rect id="Rectangle_5821" data-name="Rectangle 5821" width="128" height="64" rx="8" transform="translate(-1.455 -1.432)" fill="#f9f9f9"/>
      <rect id="Rectangle_5822" data-name="Rectangle 5822" width="84" height="6" rx="3" transform="translate(-1.455 74.569)" fill="#f9f9f9"/>
      <rect id="Rectangle_5823" data-name="Rectangle 5823" width="125" height="6" rx="3" transform="translate(-1.455 86.569)" fill="#f9f9f9"/>
      <rect id="Rectangle_5824" data-name="Rectangle 5824" width="39" height="6" rx="3" transform="translate(-1.455 98.568)" fill="#f9f9f9"/>
    </g>
    <g id="loader" transform="translate(77.999 234)">
      <path id="Path_5132" data-name="Path 5132" d="M12.7,2A1.7,1.7,0,0,0,11,3.7V7.1a1.7,1.7,0,0,0,3.4,0V3.7A1.7,1.7,0,0,0,12.7,2Z" transform="translate(4.3 -2)" fill="#d7d7d7"/>
      <path id="Path_5133" data-name="Path 5133" d="M23.1,11H19.7a1.7,1.7,0,1,0,0,3.4h3.4a1.7,1.7,0,0,0,0-3.4Z" transform="translate(9.2 4.3)" fill="#d7d7d7"/>
      <path id="Path_5134" data-name="Path 5134" d="M8.8,12.7A1.7,1.7,0,0,0,7.1,11H3.7a1.7,1.7,0,0,0,0,3.4H7.1A1.7,1.7,0,0,0,8.8,12.7Z" transform="translate(-2 4.3)" fill="#d7d7d7"/>
      <path id="Path_5135" data-name="Path 5135" d="M7.415,5.194a1.72,1.72,0,0,0-2.363,2.5L7.5,10.056A1.737,1.737,0,0,0,9.965,7.608Z" transform="translate(-0.241 -0.094)" fill="#d7d7d7"/>
      <path id="Path_5136" data-name="Path 5136" d="M17.666,10.493a1.7,1.7,0,0,0,1.173-.476l2.448-2.363a1.7,1.7,0,0,0-2.3-2.5L16.544,7.569a1.73,1.73,0,0,0,1.122,2.924Z" transform="translate(7.834 -0.055)" fill="#d7d7d7"/>
      <path id="Path_5137" data-name="Path 5137" d="M12.7,18A1.7,1.7,0,0,0,11,19.7v3.4a1.7,1.7,0,0,0,3.4,0V19.7A1.7,1.7,0,0,0,12.7,18Z" transform="translate(4.3 9.2)" fill="#d7d7d7"/>
      <path id="Path_5138" data-name="Path 5138" d="M18.917,16.337a1.7,1.7,0,1,0-2.363,2.448L19,21.2a1.713,1.713,0,0,0,2.4-2.448Z" transform="translate(7.824 7.701)" fill="#d7d7d7"/>
      <path id="Path_5139" data-name="Path 5139" d="M7.485,16.316,5.037,18.679a1.721,1.721,0,0,0,2.363,2.5l2.448-2.363a1.7,1.7,0,0,0-2.363-2.448Z" transform="translate(-0.226 7.722)" fill="#d7d7d7"/>
    </g>
    <path id="Path_5142" data-name="Path 5142" d="M38,8H22L19.18,5.18A4.012,4.012,0,0,0,16.34,4H6A4,4,0,0,0,2.02,8L2,32a4.012,4.012,0,0,0,4,4H38a4.012,4.012,0,0,0,4-4V12A4.012,4.012,0,0,0,38,8ZM24,28H12a2,2,0,0,1,0-4H24a2,2,0,0,1,0,4Zm8-8H12a2,2,0,0,1,0-4H32a2,2,0,0,1,0,4Z" transform="translate(73.999 170)" fill="#666"/>
  </g>
</svg>
